<?xml version="1.0"?>
<!DOCTYPE svg PUBLIC "-//W3C//DTD SVG 1.1//EN" "http://www.w3.org/Graphics/SVG/1.1/DTD/svg11.dtd">
<svg xmlns="http://www.w3.org/2000/svg" xmlns:xl="http://www.w3.org/1999/xlink" version="1.1" viewBox="37 56 786 403" width="786pt" height="403pt"><metadata xmlns:dc="http://purl.org/dc/elements/1.1/"><dc:date>2015-02-12 20:17Z</dc:date><!-- Produced by OmniGraffle Professional 5.4.4 --></metadata><defs><linearGradient x1="0" x2="1" id="Gradient" gradientUnits="userSpaceOnUse"><stop offset="0" stop-color="#333"/><stop offset=".5" stop-color="white"/><stop offset="1" stop-color="gray"/></linearGradient><linearGradient id="Obj_Gradient" xl:href="#Gradient" gradientTransform="translate(509.47152 69) rotate(90) scale(378)"/><linearGradient x1="0" x2="1" id="Gradient_2" gradientUnits="userSpaceOnUse"><stop offset="0" stop-color="#666"/><stop offset=".1825397" stop-color="#535353"/><stop offset="1" stop-color="black"/></linearGradient><linearGradient id="Obj_Gradient_2" xl:href="#Gradient_2" gradientTransform="translate(358.94367 153.0456) rotate(70) scale(305.27741)"/><linearGradient id="Obj_Gradient_3" xl:href="#Gradient_2" gradientTransform="translate(542.2011 177.44511) rotate(70) scale(288.85507)"/><linearGradient x1="0" x2="1" id="Gradient_3" gradientUnits="userSpaceOnUse"><stop offset="0" stop-color="white"/><stop offset="1" stop-color="#aaa"/></linearGradient><linearGradient id="Obj_Gradient_4" xl:href="#Gradient_3" gradientTransform="translate(128 68.999988) rotate(90) scale(378)"/><font-face font-family="Helvetica" font-size="13" units-per-em="1000" underline-position="-75.683594" underline-thickness="49.31641" slope="0" x-height="522.94922" cap-height="717.2852" ascent="770.0196" descent="-229.98048" font-weight="500"><font-face-src><font-face-name name="Helvetica"/></font-face-src></font-face></defs><g stroke="none" stroke-opacity="1" stroke-dasharray="none" fill="none" fill-opacity="1"><title>Canvas 1</title><g><title>Layer 1</title><rect x="205.29442" y="69" width="608.3542" height="378" fill="url(#Obj_Gradient)"/><path d="M 307.9568 418.32934 C 307.9568 418.32934 308.64992 386.62 316.96015 382.19513 C 323.88505 379.98306 335.65661 373.3471 337.73484 371.87197 C 339.81396 370.3966 339.81173 363.02223 339.81173 363.75967 C 339.81173 364.49662 324.5757 380.7205 314.1897 380.7205 C 336.35173 360.07272 332.8875 353.43578 332.8875 353.43578 C 332.8875 353.43578 314.88103 368.92173 310.72458 367.44686 C 329.42305 349.0109 332.19528 340.1619 332.19528 340.1619 C 332.19528 340.1619 308.64992 353.43578 299.64434 348.27347 C 321.11616 341.63702 326.6555 288.5421 326.6555 288.5421 C 326.6555 288.5421 331.5015 239.87157 334.96573 231.02231 C 336.35173 222.91098 350.20287 166.12875 411.8406 175.7152 C 473.47926 185.30189 464.47726 270.84371 464.47726 273.05617 C 464.47726 275.26841 465.86059 272.31861 465.86059 278.95546 C 465.86059 285.59223 463.09058 288.5421 463.09058 288.5421 C 463.09058 288.5421 465.8617 295.91651 465.8617 308.45258 C 463.78347 306.24039 463.09058 302.55313 461.70592 304.7654 C 461.01436 313.61443 458.9377 311.40224 454.78102 328.3629 C 454.087 337.2124 463.78347 343.84909 467.24503 343.84909 C 460.32058 346.79884 471.40015 349.0109 471.40015 349.0109 C 471.40015 349.0109 494.9455 352.6981 503.2582 358.59784 C 511.5691 364.49735 521.96045 398.41852 522.65223 416.85446 C 523.34512 418.3291 307.9568 418.32934 307.9568 418.32934 Z" fill="url(#Obj_Gradient_2)"/><rect x="205.29442" y="418.32934" width="608.3542" height="28.670642" fill="black" fill-opacity=".5"/><path d="M 747.01574 431.92107 L 780.4338 431.92107 C 780.73046 431.92107 780.97093 432.16155 780.97093 432.4582 L 780.97093 432.4582 C 780.97093 432.75483 780.73046 432.9953 780.4338 432.9953 L 747.01574 432.9953 C 746.7191 432.9953 746.47863 432.75483 746.47863 432.4582 L 746.47863 432.4582 C 746.47863 432.16155 746.7191 431.92107 747.01574 431.92107 Z" fill="white"/><path d="M 747.01574 431.92107 L 780.4338 431.92107 C 780.73046 431.92107 780.97093 432.16155 780.97093 432.4582 L 780.97093 432.4582 C 780.97093 432.75483 780.73046 432.9953 780.4338 432.9953 L 747.01574 432.9953 C 746.7191 432.9953 746.47863 432.75483 746.47863 432.4582 L 746.47863 432.4582 C 746.47863 432.16155 746.7191 431.92107 747.01574 431.92107 Z" stroke="white" stroke-linecap="round" stroke-linejoin="round" stroke-width="1"/><ellipse cx="763.3776" cy="432.80588" rx="3.3353367" ry="3.0784519" fill="white"/><ellipse cx="763.3776" cy="432.80588" rx="3.3353367" ry="3.0784519" stroke="white" stroke-linecap="round" stroke-linejoin="round" stroke-width="1"/><path d="M 794.01078 439.06577 L 793.21026 438.26525 C 794.66416 436.8121 795.5047 434.92665 795.57936 432.9544 C 795.65255 430.99877 794.9622 429.18877 793.63204 427.8593 L 794.43175 427.05955 C 795.9868 428.61383 796.7964 430.72264 796.71033 432.99742 C 796.62583 435.2556 795.6661 437.4104 794.01078 439.06577 Z" fill="white"/><path d="M 794.01078 439.06577 L 793.21026 438.26525 C 794.66416 436.8121 795.5047 434.92665 795.57936 432.9544 C 795.65255 430.99877 794.9622 429.18877 793.63204 427.8593 L 794.43175 427.05955 C 795.9868 428.61383 796.7964 430.72264 796.71033 432.99742 C 796.62583 435.2556 795.6661 437.4104 794.01078 439.06577 Z" stroke="white" stroke-linecap="round" stroke-linejoin="round" stroke-width=".25"/><path d="M 792.89417 436.72834 L 792.0944 435.92783 C 792.90776 435.11524 793.37856 434.0635 793.4208 432.96346 C 793.46154 431.88 793.0798 430.87955 792.3464 430.1447 L 793.14616 429.3449 C 794.1059 430.30463 794.6046 431.6046 794.5518 433.00647 C 794.49825 434.39246 793.9097 435.71433 792.89417 436.72834 Z" fill="white"/><path d="M 792.89417 436.72834 L 792.0944 435.92783 C 792.90776 435.11524 793.37856 434.0635 793.4208 432.96346 C 793.46154 431.88 793.0798 430.87955 792.3464 430.1447 L 793.14616 429.3449 C 794.1059 430.30463 794.6046 431.6046 794.5518 433.00647 C 794.49825 434.39246 793.9097 435.71433 792.89417 436.72834 Z" stroke="white" stroke-linecap="round" stroke-linejoin="round" stroke-width=".25"/><path d="M 790.31757 428.1249 L 787.3298 431.2447 L 784.67473 431.2447 L 784.67473 434.87076 L 787.3298 434.87076 L 790.31757 437.99137 Z" fill="white"/><path d="M 790.31757 428.1249 L 787.3298 431.2447 L 784.67473 431.2447 L 784.67473 434.87076 L 787.3298 434.87076 L 790.31757 437.99137 Z" stroke="white" stroke-linecap="round" stroke-linejoin="round" stroke-width=".25"/><path d="M 792.22644 431.88074 C 791.92764 431.5812 791.53756 431.4303 791.14524 431.4228 L 791.14524 434.56374 C 791.5368 434.55544 791.9269 434.40531 792.22566 434.10577 C 792.83983 433.4916 792.83983 432.49413 792.22644 431.88074 Z" fill="white"/><path d="M 792.22644 431.88074 C 791.92764 431.5812 791.53756 431.4303 791.14524 431.4228 L 791.14524 434.56374 C 791.5368 434.55544 791.9269 434.40531 792.22566 434.10577 C 792.83983 433.4916 792.83983 432.49413 792.22644 431.88074 Z" stroke="white" stroke-linecap="round" stroke-linejoin="round" stroke-width=".25"/><path d="M 740.7181 428.12942 L 737.73032 431.24922 L 735.07526 431.24922 L 735.07526 434.8753 L 737.73032 434.8753 L 740.7181 437.9959 Z" fill="white"/><path d="M 740.7181 428.12942 L 737.73032 431.24922 L 735.07526 431.24922 L 735.07526 434.8753 L 737.73032 434.8753 L 740.7181 437.9959 Z" stroke="white" stroke-linecap="round" stroke-linejoin="round" stroke-width=".25"/><path d="M 742.62696 431.88526 C 742.32817 431.58572 741.9381 431.43483 741.54577 431.42733 L 741.54577 434.56826 C 741.9373 434.55997 742.3274 434.40984 742.6262 434.1103 C 743.24036 433.49614 743.24036 432.49866 742.62696 431.88526 Z" fill="white"/><path d="M 742.62696 431.88526 C 742.32817 431.58572 741.9381 431.43483 741.54577 431.42733 L 741.54577 434.56826 C 741.9373 434.55997 742.3274 434.40984 742.6262 434.1103 C 743.24036 433.49614 743.24036 432.49866 742.62696 431.88526 Z" stroke="white" stroke-linecap="round" stroke-linejoin="round" stroke-width=".25"/><path d="M 338.54097 431.59044 L 696.68533 431.59044 C 696.98198 431.59044 697.22245 431.8309 697.22245 432.12755 L 697.22245 432.12755 C 697.22245 432.4242 696.98198 432.66467 696.68533 432.66467 L 338.54097 432.66467 C 338.24433 432.66467 338.00385 432.4242 338.00385 432.12755 L 338.00385 432.12755 C 338.00385 431.8309 338.24433 431.59044 338.54097 431.59044 Z" fill="white"/><path d="M 338.54097 431.59044 L 696.68533 431.59044 C 696.98198 431.59044 697.22245 431.8309 697.22245 432.12755 L 697.22245 432.12755 C 697.22245 432.4242 696.98198 432.66467 696.68533 432.66467 L 338.54097 432.66467 C 338.24433 432.66467 338.00385 432.4242 338.00385 432.12755 L 338.00385 432.12755 C 338.00385 431.8309 338.24433 431.59044 338.54097 431.59044 Z" stroke="white" stroke-linecap="round" stroke-linejoin="round" stroke-width="1"/><ellipse cx="361.39925" cy="432.54906" rx="3.2057574" ry="3.3352737" fill="white"/><ellipse cx="361.39925" cy="432.54906" rx="3.2057574" ry="3.3352737" stroke="white" stroke-linecap="round" stroke-linejoin="round" stroke-width="1"/><path d="M 300.22591 429.42772 L 303.82225 433.03906 C 304.01653 433.23416 304.01653 433.5496 303.82225 433.7447 L 300.22591 437.35604 C 300.03106 437.5517 299.71448 437.55237 299.51881 437.35751 C 299.42459 437.26369 299.37163 437.1362 299.37163 437.00322 L 299.37163 429.78054 C 299.37163 429.5044 299.59548 429.28054 299.87163 429.28054 C 300.0046 429.28054 300.13209 429.3335 300.22591 429.42772 Z" fill="white"/><path d="M 305.75683 429.42772 L 309.35317 433.03906 C 309.54746 433.23416 309.54746 433.5496 309.35317 433.7447 L 305.75683 437.35604 C 305.56198 437.5517 305.2454 437.55237 305.04973 437.35752 C 304.9555 437.2637 304.90254 437.1362 304.90254 437.00323 L 304.90254 429.78053 C 304.90254 429.5044 305.1264 429.28053 305.40254 429.28053 C 305.53551 429.28053 305.663 429.3335 305.75683 429.42772 Z" fill="white"/><path d="M 237.38117 429.4264 L 233.78484 433.03773 C 233.59056 433.23283 233.59056 433.54827 233.78484 433.74337 L 237.38117 437.3547 C 237.57603 437.55038 237.89261 437.55104 238.08828 437.35618 C 238.1825 437.26236 238.23546 437.13486 238.23546 437.0019 L 238.23546 429.7792 C 238.23546 429.50306 238.0116 429.2792 237.73546 429.2792 C 237.60249 429.2792 237.475 429.33217 237.38117 429.4264 Z" fill="white"/><path d="M 231.85027 429.42639 L 228.25393 433.03773 C 228.05964 433.23283 228.05964 433.54827 228.25393 433.74337 L 231.85027 437.3547 C 232.04513 437.55038 232.36171 437.55104 232.55738 437.35618 C 232.6516 437.26236 232.70456 437.13487 232.70456 437.0019 L 232.70456 429.7792 C 232.70456 429.50306 232.4807 429.2792 232.20456 429.2792 C 232.07159 429.2792 231.9441 429.33217 231.85027 429.42639 Z" fill="white"/><rect x="262.78263" y="424.99866" width="4.5576916" height="15.100865" fill="white"/><rect x="270.26678" y="424.99866" width="4.5576916" height="15.100865" fill="white"/><path d="M 458.2636 417.9053 C 458.2636 417.9053 463.21964 406.00317 465.69753 399.52973 C 468.17542 393.0565 492.74206 382.12253 504.61604 380.73013 C 509.23342 379.3375 531.00083 369.5894 531.00083 369.5894 C 531.00083 369.5894 537.59742 365.41175 540.23612 364.71554 C 542.87454 364.01955 550.7901 364.01955 550.7901 364.01955 L 558.70563 359.8417 L 559.36537 341.0421 L 554.74746 327.11671 C 554.74746 327.11671 548.81033 322.93934 548.15166 321.54632 C 547.49192 320.15385 544.19375 305.53189 544.19375 305.53189 C 544.19375 305.53189 541.55506 289.51733 542.87454 287.4285 C 544.19375 285.33969 546.8319 285.33969 546.8319 285.33969 C 546.8319 285.33969 542.87454 257.48817 543.53348 253.31073 C 543.53348 246.34807 552.76904 230.3337 552.76904 230.3337 L 560.68485 220.58579 C 560.68485 220.58579 552.1093 225.45964 552.1093 224.06723 C 554.74746 217.80076 565.9613 213.62291 567.28064 212.92671 C 568.60004 212.2305 572.55838 212.2305 575.19627 212.92671 C 577.83504 213.62291 581.7928 208.74906 581.7928 208.74906 C 581.7928 208.74906 583.11205 210.14168 585.09063 210.83789 C 591.02762 207.35645 600.92244 208.05265 602.2414 208.05265 C 608.17816 208.05265 633.24395 215.71194 629.9458 217.10435 C 621.37077 218.49676 625.3284 219.88959 625.3284 219.88959 L 645.77687 225.45964 C 645.77687 225.45964 655.67163 231.03032 652.37347 231.72631 C 646.43688 231.0299 648.41583 233.11872 648.41583 233.11872 C 648.41583 233.11872 653.03294 234.51134 653.69295 237.99278 C 649.07503 238.68898 649.73477 239.3854 649.73477 239.3854 C 649.73477 239.3854 656.99084 253.31073 656.33137 256.79239 C 654.3519 256.09618 651.71373 256.79239 651.71373 256.79239 C 651.71373 256.79239 653.03294 262.36265 653.03267 265.84388 C 653.03294 269.32532 651.71453 274.89537 651.71373 277.6806 C 651.714 280.46584 651.71373 286.03589 651.71373 286.03589 C 651.71373 286.03589 653.03374 285.34032 655.01216 286.7323 C 656.99084 288.12492 655.67137 300.65813 655.67137 302.05055 C 655.01216 306.92444 653.03267 311.10222 653.03267 311.10222 L 649.73477 321.54632 C 649.73477 321.54632 648.41583 327.11671 646.43688 327.11671 C 644.45766 327.11671 642.4787 325.72407 642.4787 325.72407 C 642.4787 325.72407 639.1808 340.34589 637.20185 343.82733 C 635.22263 347.30877 633.9037 350.0938 633.9037 350.0938 L 633.9037 363.32314 C 633.9037 363.32314 642.48004 366.109 645.1174 367.50078 C 647.7561 368.89319 649.73477 372.37484 649.73477 372.37484 C 649.73477 372.37484 680.8036 379.32173 689.47836 383.2455 C 698.15178 387.16906 707.82307 394.84666 711.7807 397.63168 C 715.7386 400.41692 724.93283 418.32934 724.93283 418.32934 Z" fill="url(#Obj_Gradient_3)"/><rect x="49.000002" y="68.999988" width="158" height="378" fill="url(#Obj_Gradient_4)"/><rect x="49.000002" y="68.999988" width="158" height="378" stroke="#0080ff" stroke-linecap="round" stroke-linejoin="round" stroke-width="3"/><text transform="translate(69 108.99999)" fill="black"><tspan font-family="Helvetica" font-size="13" font-weight="500" x="50.080078" y="13" textLength="67.91992">Plan Basics</tspan><tspan font-family="Helvetica" font-size="13" font-weight="500" x="13.2319336" y="47" textLength="104.768066">Retirement Needs</tspan><tspan font-family="Helvetica" font-size="13" font-weight="500" x="52.263672" y="81" textLength="55.618164">Risk Profi</tspan><tspan font-family="Helvetica" font-size="13" font-weight="500" x="107.881836" y="81" textLength="10.118164">le</tspan><tspan font-family="Helvetica" font-size="13" font-weight="500" x="47.915527" y="115" textLength="70.084473">Investments</tspan><tspan font-family="Helvetica" font-size="13" font-weight="500" x="41.402832" y="149" textLength="76.59717">Contributions</tspan><tspan font-family="Helvetica" font-size="13" font-weight="500" x="60.210938" y="183" textLength="47.670898">My Profi</tspan><tspan font-family="Helvetica" font-size="13" font-weight="500" x="107.881836" y="183" textLength="10.118164">le</tspan><tspan font-family="Helvetica" font-size="13" font-weight="500" x="78.26367" y="217" textLength="39.736328">Library</tspan></text></g></g></svg>
