<?xml version="1.0" encoding="UTF-8" standalone="no"?>
<svg width="20px" height="20px" viewBox="0 0 20 20" version="1.1" xmlns="http://www.w3.org/2000/svg" xmlns:xlink="http://www.w3.org/1999/xlink">
    <!-- Generator: Sketch 3.7.1 (28215) - http://www.bohemiancoding.com/sketch -->
    <title>Combined Shape</title>
    <desc>Created with Sketch.</desc>
    <defs></defs>
    <g id="Symbols" stroke="none" stroke-width="1" fill="none" fill-rule="evenodd">
        <g id="Close" transform="translate(-377.000000, -20.000000)" fill="#ffffff">
            <polygon id="Combined-Shape" points="387 28.1818182 378.818182 20 377 21.8181818 385.181818 30 377 38.1818182 378.818182 40 387 31.8181818 395.181818 40 397 38.1818182 388.818182 30 397 21.8181818 395.181818 20"></polygon>
        </g>
    </g>
</svg>
